<svg width="192" height="42" viewBox="0 0 192 42" fill="none" xmlns="http://www.w3.org/2000/svg">
<rect width="192" height="42" rx="21" fill="white" fill-opacity="0.08"/>
<path d="M35.88 14.04V16.3H32.16V28H29.36V16.3H25.64V14.04H35.88ZM40.723 16.3V19.8H45.423V22.02H40.723V25.72H46.023V28H37.923V14.02H46.023V16.3H40.723ZM53.3875 28.14C52.4142 28.14 51.5342 27.9733 50.7475 27.64C49.9742 27.3067 49.3608 26.8267 48.9075 26.2C48.4542 25.5733 48.2208 24.8333 48.2075 23.98H51.2075C51.2475 24.5533 51.4475 25.0067 51.8075 25.34C52.1808 25.6733 52.6875 25.84 53.3275 25.84C53.9808 25.84 54.4942 25.6867 54.8675 25.38C55.2408 25.06 55.4275 24.6467 55.4275 24.14C55.4275 23.7267 55.3008 23.3867 55.0475 23.12C54.7942 22.8533 54.4742 22.6467 54.0875 22.5C53.7142 22.34 53.1942 22.1667 52.5275 21.98C51.6208 21.7133 50.8808 21.4533 50.3075 21.2C49.7475 20.9333 49.2608 20.54 48.8475 20.02C48.4475 19.4867 48.2475 18.78 48.2475 17.9C48.2475 17.0733 48.4542 16.3533 48.8675 15.74C49.2808 15.1267 49.8608 14.66 50.6075 14.34C51.3542 14.0067 52.2075 13.84 53.1675 13.84C54.6075 13.84 55.7742 14.1933 56.6675 14.9C57.5742 15.5933 58.0742 16.5667 58.1675 17.82H55.0875C55.0608 17.34 54.8542 16.9467 54.4675 16.64C54.0942 16.32 53.5942 16.16 52.9675 16.16C52.4208 16.16 51.9808 16.3 51.6475 16.58C51.3275 16.86 51.1675 17.2667 51.1675 17.8C51.1675 18.1733 51.2875 18.4867 51.5275 18.74C51.7808 18.98 52.0875 19.18 52.4475 19.34C52.8208 19.4867 53.3408 19.66 54.0075 19.86C54.9142 20.1267 55.6542 20.3933 56.2275 20.66C56.8008 20.9267 57.2942 21.3267 57.7075 21.86C58.1208 22.3933 58.3275 23.0933 58.3275 23.96C58.3275 24.7067 58.1342 25.4 57.7475 26.04C57.3608 26.68 56.7942 27.1933 56.0475 27.58C55.3008 27.9533 54.4142 28.14 53.3875 28.14ZM70.255 14.04V16.3H66.535V28H63.735V16.3H60.015V14.04H70.255ZM75.098 14.04V28H72.298V14.04H75.098ZM93.0844 14.04V28H90.2844V18.92L86.5444 28H84.4244L80.6644 18.92V28H77.8644V14.04H81.0444L85.4844 24.42L89.9244 14.04H93.0844ZM102.333 28.14C101.026 28.14 99.826 27.8333 98.7327 27.22C97.6393 26.6067 96.7727 25.76 96.1327 24.68C95.4927 23.5867 95.1727 22.3533 95.1727 20.98C95.1727 19.62 95.4927 18.4 96.1327 17.32C96.7727 16.2267 97.6393 15.3733 98.7327 14.76C99.826 14.1467 101.026 13.84 102.333 13.84C103.653 13.84 104.853 14.1467 105.933 14.76C107.026 15.3733 107.886 16.2267 108.513 17.32C109.153 18.4 109.473 19.62 109.473 20.98C109.473 22.3533 109.153 23.5867 108.513 24.68C107.886 25.76 107.026 26.6067 105.933 27.22C104.839 27.8333 103.639 28.14 102.333 28.14ZM102.333 25.64C103.173 25.64 103.913 25.4533 104.553 25.08C105.193 24.6933 105.693 24.1467 106.053 23.44C106.413 22.7333 106.593 21.9133 106.593 20.98C106.593 20.0467 106.413 19.2333 106.053 18.54C105.693 17.8333 105.193 17.2933 104.553 16.92C103.913 16.5467 103.173 16.36 102.333 16.36C101.493 16.36 100.746 16.5467 100.093 16.92C99.4527 17.2933 98.9527 17.8333 98.5927 18.54C98.2327 19.2333 98.0527 20.0467 98.0527 20.98C98.0527 21.9133 98.2327 22.7333 98.5927 23.44C98.9527 24.1467 99.4527 24.6933 100.093 25.08C100.746 25.4533 101.493 25.64 102.333 25.64ZM123.496 28H120.696L114.356 18.42V28H111.556V14.02H114.356L120.696 23.62V14.02H123.496V28ZM129.063 14.04V28H126.263V14.04H129.063ZM140.389 25.34H134.829L133.909 28H130.969L135.989 14.02H139.249L144.269 28H141.309L140.389 25.34ZM139.629 23.1L137.609 17.26L135.589 23.1H139.629ZM148.946 25.78H153.546V28H146.146V14.04H148.946V25.78ZM160.145 28.14C159.172 28.14 158.292 27.9733 157.505 27.64C156.732 27.3067 156.119 26.8267 155.665 26.2C155.212 25.5733 154.979 24.8333 154.965 23.98H157.965C158.005 24.5533 158.205 25.0067 158.565 25.34C158.939 25.6733 159.445 25.84 160.085 25.84C160.739 25.84 161.252 25.6867 161.625 25.38C161.999 25.06 162.185 24.6467 162.185 24.14C162.185 23.7267 162.059 23.3867 161.805 23.12C161.552 22.8533 161.232 22.6467 160.845 22.5C160.472 22.34 159.952 22.1667 159.285 21.98C158.379 21.7133 157.639 21.4533 157.065 21.2C156.505 20.9333 156.019 20.54 155.605 20.02C155.205 19.4867 155.005 18.78 155.005 17.9C155.005 17.0733 155.212 16.3533 155.625 15.74C156.039 15.1267 156.619 14.66 157.365 14.34C158.112 14.0067 158.965 13.84 159.925 13.84C161.365 13.84 162.532 14.1933 163.425 14.9C164.332 15.5933 164.832 16.5667 164.925 17.82H161.845C161.819 17.34 161.612 16.9467 161.225 16.64C160.852 16.32 160.352 16.16 159.725 16.16C159.179 16.16 158.739 16.3 158.405 16.58C158.085 16.86 157.925 17.2667 157.925 17.8C157.925 18.1733 158.045 18.4867 158.285 18.74C158.539 18.98 158.845 19.18 159.205 19.34C159.579 19.4867 160.099 19.66 160.765 19.86C161.672 20.1267 162.412 20.3933 162.985 20.66C163.559 20.9267 164.052 21.3267 164.465 21.86C164.879 22.3933 165.085 23.0933 165.085 23.96C165.085 24.7067 164.892 25.4 164.505 26.04C164.119 26.68 163.552 27.1933 162.805 27.58C162.059 27.9533 161.172 28.14 160.145 28.14Z" fill="#FFB742"/>
</svg>
